libxmp\src\dataio.cpp(166): Warning! W389: col(25) integral value may be truncated during assignment or initialization
libxmp\src\dataio.cpp(166): Warning! W389: col(25) integral value may be truncated during assignment or initialization
libxmp\src\dataio.cpp(176): Warning! W389: col(25) integral value may be truncated during assignment or initialization
libxmp\src\dataio.cpp(176): Warning! W389: col(25) integral value may be truncated during assignment or initialization
libxmp\src\dataio.cpp(241): Warning! W389: col(21) integral value may be truncated during assignment or initialization
libxmp\src\dataio.cpp(242): Warning! W389: col(36) integral value may be truncated during assignment or initialization
libxmp\src\dataio.cpp(243): Warning! W389: col(36) integral value may be truncated during assignment or initialization
libxmp\src\dataio.cpp(244): Warning! W389: col(36) integral value may be truncated during assignment or initialization
libxmp\src\dataio.cpp(249): Warning! W389: col(36) integral value may be truncated during assignment or initialization
libxmp\src\dataio.cpp(250): Warning! W389: col(36) integral value may be truncated during assignment or initialization
libxmp\src\dataio.cpp(251): Warning! W389: col(36) integral value may be truncated during assignment or initialization
libxmp\src\dataio.cpp(252): Warning! W389: col(21) integral value may be truncated during assignment or initialization
