libxmp\src\depackers\vorbis.c(1865): Warning! W131: No prototype found for function 'alloca'
libxmp\src\depackers\vorbis.c(1865): Warning! W102: Parameter 1: Type mismatch (warning)
libxmp\src\depackers\vorbis.c(1865): Note! I2003: source conversion type is 'int'
libxmp\src\depackers\vorbis.c(1865): Note! I2004: target conversion type is 'void *'
